<svg width="16" height="16" viewBox="0 0 16 16" fill="none" xmlns="http://www.w3.org/2000/svg">
<circle cx="8.00065" cy="8.00065" r="2.66667" stroke="#14142B" stroke-width="1.5"/>
<path d="M6.53122 1.78616C7.19639 0.67613 8.80491 0.67613 9.47008 1.78616V1.78616C9.858 2.43352 10.6239 2.75075 11.3559 2.5673V2.5673C12.6112 2.25273 13.7486 3.39013 13.434 4.64538V4.64538C13.2506 5.37743 13.5678 6.1433 14.2151 6.53122V6.53122C15.3252 7.19639 15.3252 8.80491 14.2151 9.47008V9.47008C13.5678 9.858 13.2506 10.6239 13.434 11.3559V11.3559C13.7486 12.6112 12.6112 13.7486 11.3559 13.434V13.434C10.6239 13.2506 9.858 13.5678 9.47008 14.2151V14.2151C8.80491 15.3252 7.19639 15.3252 6.53122 14.2151V14.2151C6.1433 13.5678 5.37743 13.2506 4.64538 13.434V13.434C3.39013 13.7486 2.25273 12.6112 2.5673 11.3559V11.3559C2.75075 10.6239 2.43352 9.858 1.78616 9.47008V9.47008C0.67613 8.80491 0.676129 7.19639 1.78616 6.53122V6.53122C2.43352 6.1433 2.75075 5.37744 2.5673 4.64538V4.64538C2.25273 3.39013 3.39013 2.25273 4.64538 2.5673V2.5673C5.37744 2.75075 6.1433 2.43352 6.53122 1.78616V1.78616Z" stroke="#14142B" stroke-width="1.5"/>
</svg>
