<svg width="18" height="18" viewBox="0 0 18 18" fill="none" xmlns="http://www.w3.org/2000/svg">
<circle cx="5.25" cy="4.5" r="2.25" stroke="#14142B" stroke-width="1.5"/>
<circle cx="12.375" cy="6.375" r="1.875" stroke="#14142B" stroke-width="1.5"/>
<path d="M0.75 13.5C0.75 11.0147 2.76472 9 5.25 9V9C7.73528 9 9.75 11.0147 9.75 13.5V15H0.75V13.5Z" stroke="#14142B" stroke-width="1.5"/>
<path d="M9.40308 11.7644L8.7112 12.0538L8.52097 11.5992L8.86279 11.2442L9.40308 11.7644ZM9.75 15L9.75 15.75L9 15.75V15H9.75ZM10.0179 15L10.0179 14.25H10.0179V15ZM16.5 15H17.25V15.75H16.5V15ZM9 13.5C9 12.986 8.89699 12.4979 8.7112 12.0538L10.095 11.4749C10.3561 12.099 10.5 12.7837 10.5 13.5H9ZM9 15V13.5H10.5V15H9ZM9.75 14.25H10.0179L10.0179 15.75H9.75L9.75 14.25ZM10.0179 14.25H16.5V15.75H10.0179V14.25ZM15.75 15V14.625H17.25V15H15.75ZM15.75 14.625C15.75 12.761 14.239 11.25 12.375 11.25V9.75C15.0674 9.75 17.25 11.9326 17.25 14.625H15.75ZM12.375 11.25C11.4198 11.25 10.5583 11.6459 9.94337 12.2845L8.86279 11.2442C9.74872 10.324 10.9955 9.75 12.375 9.75V11.25Z" fill="#14142B"/>
</svg>
